digraph  {
GetAccessNumber;
VerifyPin;
OpenMenu;
SLM_GetCallReason;
AutomaticPayment_GetPurpose;
ConfirmAccessNumber;
CreditCard_GetPurpose;
VerifyDateOfBirth;
VerifyStreetName;
VerifyMobileNumber;
VerifyMiddleName;
Account_GetProduct;
Payment_GetProduct;
Balance_IsCreditCard;
Kiwisaver_GetPurpose;
InternetBanking_GetPurpose;
Transactions_IsCreditCard;
Overdraft_IsNew;
PhoneBanking_GetPurpose;
Loan_GetPurpose;
Card_IsCreditCard;
Statement_IsCreditCard;
SLM_GetBranchReason;
CreditCard_New;
NewAccount_IsKiwibankCustomer;
Business_IsKiwibankCustomer;
Insurance_GetPurpose;
BalanceTransfer_IsCreditCard;
Insurance_GetProductDetail;
CreditCard_LostOrStolen;
MobileApp_GetPurpose;
Airpoints_IsCreditCard;
CreditLimit_IsChange;
Overdue_IsCreditCard;
GetAccessNumber -> VerifyPin;
GetAccessNumber -> OpenMenu;
GetAccessNumber -> ConfirmAccessNumber;
GetAccessNumber -> GetAccessNumber;
VerifyPin -> OpenMenu;
VerifyPin -> GetAccessNumber;
OpenMenu -> SLM_GetCallReason;
OpenMenu -> OpenMenu;
OpenMenu -> CreditCard_GetPurpose;
OpenMenu -> VerifyDateOfBirth;
OpenMenu -> Account_GetProduct;
OpenMenu -> Payment_GetProduct;
OpenMenu -> Balance_IsCreditCard;
OpenMenu -> AutomaticPayment_GetPurpose;
OpenMenu -> Kiwisaver_GetPurpose;
OpenMenu -> Transactions_IsCreditCard;
OpenMenu -> Overdraft_IsNew;
OpenMenu -> PhoneBanking_GetPurpose;
OpenMenu -> InternetBanking_GetPurpose;
OpenMenu -> Loan_GetPurpose;
OpenMenu -> Card_IsCreditCard;
OpenMenu -> Statement_IsCreditCard;
OpenMenu -> SLM_GetBranchReason;
OpenMenu -> CreditCard_New;
OpenMenu -> NewAccount_IsKiwibankCustomer;
OpenMenu -> Business_IsKiwibankCustomer;
OpenMenu -> Insurance_GetPurpose;
OpenMenu -> BalanceTransfer_IsCreditCard;
OpenMenu -> CreditCard_LostOrStolen;
OpenMenu -> MobileApp_GetPurpose;
OpenMenu -> Airpoints_IsCreditCard;
OpenMenu -> CreditLimit_IsChange;
OpenMenu -> Insurance_GetProductDetail;
OpenMenu -> Overdue_IsCreditCard;
SLM_GetCallReason -> AutomaticPayment_GetPurpose;
SLM_GetCallReason -> Payment_GetProduct;
SLM_GetCallReason -> CreditCard_GetPurpose;
SLM_GetCallReason -> InternetBanking_GetPurpose;
SLM_GetCallReason -> Balance_IsCreditCard;
SLM_GetCallReason -> VerifyDateOfBirth;
SLM_GetCallReason -> Account_GetProduct;
SLM_GetCallReason -> Overdraft_IsNew;
SLM_GetCallReason -> Transactions_IsCreditCard;
SLM_GetCallReason -> Card_IsCreditCard;
SLM_GetCallReason -> Loan_GetPurpose;
SLM_GetCallReason -> Airpoints_IsCreditCard;
SLM_GetCallReason -> Statement_IsCreditCard;
SLM_GetCallReason -> NewAccount_IsKiwibankCustomer;
SLM_GetCallReason -> Kiwisaver_GetPurpose;
SLM_GetCallReason -> Insurance_GetPurpose;
SLM_GetCallReason -> PhoneBanking_GetPurpose;
SLM_GetCallReason -> MobileApp_GetPurpose;
SLM_GetCallReason -> SLM_GetBranchReason;
SLM_GetCallReason -> Business_IsKiwibankCustomer;
SLM_GetCallReason -> CreditCard_New;
AutomaticPayment_GetPurpose -> VerifyDateOfBirth;
AutomaticPayment_GetPurpose -> AutomaticPayment_GetPurpose;
ConfirmAccessNumber -> OpenMenu;
ConfirmAccessNumber -> GetAccessNumber;
ConfirmAccessNumber -> VerifyPin;
ConfirmAccessNumber -> ConfirmAccessNumber;
CreditCard_GetPurpose -> VerifyDateOfBirth;
CreditCard_GetPurpose -> CreditCard_GetPurpose;
VerifyDateOfBirth -> VerifyStreetName;
VerifyDateOfBirth -> VerifyDateOfBirth;
VerifyDateOfBirth -> VerifyMobileNumber;
VerifyDateOfBirth -> VerifyMiddleName;
VerifyStreetName -> VerifyStreetName;
VerifyStreetName -> VerifyMobileNumber;
VerifyStreetName -> VerifyMiddleName;
VerifyMobileNumber -> VerifyMobileNumber;
VerifyMobileNumber -> VerifyMiddleName;
VerifyMobileNumber -> VerifyStreetName;
VerifyMiddleName -> VerifyMiddleName;
VerifyMiddleName -> VerifyMobileNumber;
VerifyMiddleName -> VerifyStreetName;
Account_GetProduct -> VerifyDateOfBirth;
Account_GetProduct -> Account_GetProduct;
Payment_GetProduct -> VerifyDateOfBirth;
Payment_GetProduct -> Payment_GetProduct;
Balance_IsCreditCard -> VerifyDateOfBirth;
Balance_IsCreditCard -> Balance_IsCreditCard;
Kiwisaver_GetPurpose -> VerifyDateOfBirth;
Kiwisaver_GetPurpose -> Kiwisaver_GetPurpose;
InternetBanking_GetPurpose -> VerifyDateOfBirth;
InternetBanking_GetPurpose -> InternetBanking_GetPurpose;
Transactions_IsCreditCard -> VerifyDateOfBirth;
Transactions_IsCreditCard -> Transactions_IsCreditCard;
Overdraft_IsNew -> VerifyDateOfBirth;
Overdraft_IsNew -> Overdraft_IsNew;
PhoneBanking_GetPurpose -> PhoneBanking_GetPurpose;
Loan_GetPurpose -> VerifyDateOfBirth;
Loan_GetPurpose -> Loan_GetPurpose;
Card_IsCreditCard -> Card_IsCreditCard;
Card_IsCreditCard -> CreditCard_New;
Card_IsCreditCard -> VerifyDateOfBirth;
Card_IsCreditCard -> CreditCard_LostOrStolen;
Card_IsCreditCard -> CreditCard_GetPurpose;
Statement_IsCreditCard -> VerifyDateOfBirth;
Statement_IsCreditCard -> Statement_IsCreditCard;
SLM_GetBranchReason -> Payment_GetProduct;
SLM_GetBranchReason -> VerifyDateOfBirth;
SLM_GetBranchReason -> SLM_GetCallReason;
SLM_GetBranchReason -> NewAccount_IsKiwibankCustomer;
SLM_GetBranchReason -> Loan_GetPurpose;
SLM_GetBranchReason -> AutomaticPayment_GetPurpose;
SLM_GetBranchReason -> Balance_IsCreditCard;
SLM_GetBranchReason -> Account_GetProduct;
SLM_GetBranchReason -> Card_IsCreditCard;
SLM_GetBranchReason -> Insurance_GetProductDetail;
SLM_GetBranchReason -> Statement_IsCreditCard;
CreditCard_New -> VerifyDateOfBirth;
CreditCard_New -> CreditCard_New;
NewAccount_IsKiwibankCustomer -> NewAccount_IsKiwibankCustomer;
Business_IsKiwibankCustomer -> Business_IsKiwibankCustomer;
Insurance_GetPurpose -> VerifyDateOfBirth;
Insurance_GetPurpose -> Insurance_GetProductDetail;
Insurance_GetPurpose -> Insurance_GetPurpose;
BalanceTransfer_IsCreditCard -> VerifyDateOfBirth;
BalanceTransfer_IsCreditCard -> BalanceTransfer_IsCreditCard;
Insurance_GetProductDetail -> VerifyDateOfBirth;
Insurance_GetProductDetail -> Insurance_GetProductDetail;
CreditCard_LostOrStolen -> CreditCard_LostOrStolen;
CreditCard_LostOrStolen -> VerifyDateOfBirth;
MobileApp_GetPurpose -> VerifyDateOfBirth;
MobileApp_GetPurpose -> MobileApp_GetPurpose;
Airpoints_IsCreditCard -> VerifyDateOfBirth;
Airpoints_IsCreditCard -> Airpoints_IsCreditCard;
CreditLimit_IsChange -> VerifyDateOfBirth;
CreditLimit_IsChange -> CreditLimit_IsChange;
Overdue_IsCreditCard -> VerifyDateOfBirth;
}
